<?xml version='1.0' encoding='UTF-8' ?>
<svg xmlns='http://www.w3.org/2000/svg' xmlns:xlink='http://www.w3.org/1999/xlink' viewBox='0 0 578.25 265.50'>
<defs>
  <style type='text/css'><![CDATA[
    line, polyline, path, rect, circle {
      fill: none;
      stroke: #000000;
      stroke-linecap: round;
      stroke-linejoin: round;
      stroke-miterlimit: 10.00;
    }
  ]]></style>
</defs>
<rect width='100%' height='100%' style='stroke: none; fill: #FFFFFF;'/>
<rect x='0.00' y='-0.00' width='578.25' height='265.50' style='stroke-width: 1.07; stroke: #FFFFFF; fill: #FFFFFF;' />
<defs>
  <clipPath id='cp1'>
    <rect x='47.51' y='5.48' width='525.26' height='223.95' />
  </clipPath>
</defs>
<rect x='47.51' y='5.48' width='525.26' height='223.95' style='stroke-width: 1.07; stroke: none; fill: #EBEBEB;' clip-path='url(#cp1)' />
<polyline points='47.51,201.13 572.77,201.13 ' style='stroke-width: 0.53; stroke: #FFFFFF; stroke-linecap: butt;' clip-path='url(#cp1)' />
<polyline points='47.51,158.00 572.77,158.00 ' style='stroke-width: 0.53; stroke: #FFFFFF; stroke-linecap: butt;' clip-path='url(#cp1)' />
<polyline points='47.51,114.87 572.77,114.87 ' style='stroke-width: 0.53; stroke: #FFFFFF; stroke-linecap: butt;' clip-path='url(#cp1)' />
<polyline points='47.51,71.73 572.77,71.73 ' style='stroke-width: 0.53; stroke: #FFFFFF; stroke-linecap: butt;' clip-path='url(#cp1)' />
<polyline points='47.51,28.60 572.77,28.60 ' style='stroke-width: 0.53; stroke: #FFFFFF; stroke-linecap: butt;' clip-path='url(#cp1)' />
<polyline points='150.97,229.43 150.97,5.48 ' style='stroke-width: 0.53; stroke: #FFFFFF; stroke-linecap: butt;' clip-path='url(#cp1)' />
<polyline points='264.66,229.43 264.66,5.48 ' style='stroke-width: 0.53; stroke: #FFFFFF; stroke-linecap: butt;' clip-path='url(#cp1)' />
<polyline points='378.36,229.43 378.36,5.48 ' style='stroke-width: 0.53; stroke: #FFFFFF; stroke-linecap: butt;' clip-path='url(#cp1)' />
<polyline points='492.05,229.43 492.05,5.48 ' style='stroke-width: 0.53; stroke: #FFFFFF; stroke-linecap: butt;' clip-path='url(#cp1)' />
<polyline points='47.51,222.70 572.77,222.70 ' style='stroke-width: 1.07; stroke: #FFFFFF; stroke-linecap: butt;' clip-path='url(#cp1)' />
<polyline points='47.51,179.57 572.77,179.57 ' style='stroke-width: 1.07; stroke: #FFFFFF; stroke-linecap: butt;' clip-path='url(#cp1)' />
<polyline points='47.51,136.43 572.77,136.43 ' style='stroke-width: 1.07; stroke: #FFFFFF; stroke-linecap: butt;' clip-path='url(#cp1)' />
<polyline points='47.51,93.30 572.77,93.30 ' style='stroke-width: 1.07; stroke: #FFFFFF; stroke-linecap: butt;' clip-path='url(#cp1)' />
<polyline points='47.51,50.17 572.77,50.17 ' style='stroke-width: 1.07; stroke: #FFFFFF; stroke-linecap: butt;' clip-path='url(#cp1)' />
<polyline points='47.51,7.03 572.77,7.03 ' style='stroke-width: 1.07; stroke: #FFFFFF; stroke-linecap: butt;' clip-path='url(#cp1)' />
<polyline points='94.12,229.43 94.12,5.48 ' style='stroke-width: 1.07; stroke: #FFFFFF; stroke-linecap: butt;' clip-path='url(#cp1)' />
<polyline points='207.82,229.43 207.82,5.48 ' style='stroke-width: 1.07; stroke: #FFFFFF; stroke-linecap: butt;' clip-path='url(#cp1)' />
<polyline points='321.51,229.43 321.51,5.48 ' style='stroke-width: 1.07; stroke: #FFFFFF; stroke-linecap: butt;' clip-path='url(#cp1)' />
<polyline points='435.20,229.43 435.20,5.48 ' style='stroke-width: 1.07; stroke: #FFFFFF; stroke-linecap: butt;' clip-path='url(#cp1)' />
<polyline points='548.89,229.43 548.89,5.48 ' style='stroke-width: 1.07; stroke: #FFFFFF; stroke-linecap: butt;' clip-path='url(#cp1)' />
<circle cx='71.38' cy='219.25' r='1.95pt' style='stroke-width: 0.71; fill: #000000;' clip-path='url(#cp1)' />
<circle cx='71.38' cy='205.45' r='1.95pt' style='stroke-width: 0.71; fill: #000000;' clip-path='url(#cp1)' />
<circle cx='139.60' cy='215.80' r='1.95pt' style='stroke-width: 0.71; fill: #000000;' clip-path='url(#cp1)' />
<circle cx='139.60' cy='184.74' r='1.95pt' style='stroke-width: 0.71; fill: #000000;' clip-path='url(#cp1)' />
<circle cx='162.34' cy='195.10' r='1.95pt' style='stroke-width: 0.71; fill: #000000;' clip-path='url(#cp1)' />
<circle cx='185.08' cy='205.45' r='1.95pt' style='stroke-width: 0.71; fill: #000000;' clip-path='url(#cp1)' />
<circle cx='207.82' cy='191.65' r='1.95pt' style='stroke-width: 0.71; fill: #000000;' clip-path='url(#cp1)' />
<circle cx='207.82' cy='177.84' r='1.95pt' style='stroke-width: 0.71; fill: #000000;' clip-path='url(#cp1)' />
<circle cx='207.82' cy='164.04' r='1.95pt' style='stroke-width: 0.71; fill: #000000;' clip-path='url(#cp1)' />
<circle cx='230.55' cy='193.37' r='1.95pt' style='stroke-width: 0.71; fill: #000000;' clip-path='url(#cp1)' />
<circle cx='230.55' cy='174.39' r='1.95pt' style='stroke-width: 0.71; fill: #000000;' clip-path='url(#cp1)' />
<circle cx='253.29' cy='198.55' r='1.95pt' style='stroke-width: 0.71; fill: #000000;' clip-path='url(#cp1)' />
<circle cx='253.29' cy='188.19' r='1.95pt' style='stroke-width: 0.71; fill: #000000;' clip-path='url(#cp1)' />
<circle cx='253.29' cy='181.29' r='1.95pt' style='stroke-width: 0.71; fill: #000000;' clip-path='url(#cp1)' />
<circle cx='253.29' cy='174.39' r='1.95pt' style='stroke-width: 0.71; fill: #000000;' clip-path='url(#cp1)' />
<circle cx='276.03' cy='177.84' r='1.95pt' style='stroke-width: 0.71; fill: #000000;' clip-path='url(#cp1)' />
<circle cx='276.03' cy='164.04' r='1.95pt' style='stroke-width: 0.71; fill: #000000;' clip-path='url(#cp1)' />
<circle cx='276.03' cy='164.04' r='1.95pt' style='stroke-width: 0.71; fill: #000000;' clip-path='url(#cp1)' />
<circle cx='276.03' cy='143.34' r='1.95pt' style='stroke-width: 0.71; fill: #000000;' clip-path='url(#cp1)' />
<circle cx='298.77' cy='177.84' r='1.95pt' style='stroke-width: 0.71; fill: #000000;' clip-path='url(#cp1)' />
<circle cx='298.77' cy='160.59' r='1.95pt' style='stroke-width: 0.71; fill: #000000;' clip-path='url(#cp1)' />
<circle cx='298.77' cy='119.18' r='1.95pt' style='stroke-width: 0.71; fill: #000000;' clip-path='url(#cp1)' />
<circle cx='298.77' cy='84.67' r='1.95pt' style='stroke-width: 0.71; fill: #000000;' clip-path='url(#cp1)' />
<circle cx='321.51' cy='188.19' r='1.95pt' style='stroke-width: 0.71; fill: #000000;' clip-path='url(#cp1)' />
<circle cx='321.51' cy='177.84' r='1.95pt' style='stroke-width: 0.71; fill: #000000;' clip-path='url(#cp1)' />
<circle cx='321.51' cy='129.53' r='1.95pt' style='stroke-width: 0.71; fill: #000000;' clip-path='url(#cp1)' />
<circle cx='344.25' cy='167.49' r='1.95pt' style='stroke-width: 0.71; fill: #000000;' clip-path='url(#cp1)' />
<circle cx='344.25' cy='153.69' r='1.95pt' style='stroke-width: 0.71; fill: #000000;' clip-path='url(#cp1)' />
<circle cx='366.99' cy='167.49' r='1.95pt' style='stroke-width: 0.71; fill: #000000;' clip-path='url(#cp1)' />
<circle cx='366.99' cy='153.69' r='1.95pt' style='stroke-width: 0.71; fill: #000000;' clip-path='url(#cp1)' />
<circle cx='366.99' cy='136.43' r='1.95pt' style='stroke-width: 0.71; fill: #000000;' clip-path='url(#cp1)' />
<circle cx='389.72' cy='150.24' r='1.95pt' style='stroke-width: 0.71; fill: #000000;' clip-path='url(#cp1)' />
<circle cx='389.72' cy='126.08' r='1.95pt' style='stroke-width: 0.71; fill: #000000;' clip-path='url(#cp1)' />
<circle cx='389.72' cy='91.57' r='1.95pt' style='stroke-width: 0.71; fill: #000000;' clip-path='url(#cp1)' />
<circle cx='389.72' cy='77.77' r='1.95pt' style='stroke-width: 0.71; fill: #000000;' clip-path='url(#cp1)' />
<circle cx='412.46' cy='160.59' r='1.95pt' style='stroke-width: 0.71; fill: #000000;' clip-path='url(#cp1)' />
<circle cx='412.46' cy='143.34' r='1.95pt' style='stroke-width: 0.71; fill: #000000;' clip-path='url(#cp1)' />
<circle cx='412.46' cy='105.38' r='1.95pt' style='stroke-width: 0.71; fill: #000000;' clip-path='url(#cp1)' />
<circle cx='435.20' cy='167.49' r='1.95pt' style='stroke-width: 0.71; fill: #000000;' clip-path='url(#cp1)' />
<circle cx='435.20' cy='139.88' r='1.95pt' style='stroke-width: 0.71; fill: #000000;' clip-path='url(#cp1)' />
<circle cx='435.20' cy='132.98' r='1.95pt' style='stroke-width: 0.71; fill: #000000;' clip-path='url(#cp1)' />
<circle cx='435.20' cy='126.08' r='1.95pt' style='stroke-width: 0.71; fill: #000000;' clip-path='url(#cp1)' />
<circle cx='435.20' cy='112.28' r='1.95pt' style='stroke-width: 0.71; fill: #000000;' clip-path='url(#cp1)' />
<circle cx='480.68' cy='108.83' r='1.95pt' style='stroke-width: 0.71; fill: #000000;' clip-path='url(#cp1)' />
<circle cx='503.42' cy='129.53' r='1.95pt' style='stroke-width: 0.71; fill: #000000;' clip-path='url(#cp1)' />
<circle cx='526.16' cy='101.93' r='1.95pt' style='stroke-width: 0.71; fill: #000000;' clip-path='url(#cp1)' />
<circle cx='526.16' cy='63.97' r='1.95pt' style='stroke-width: 0.71; fill: #000000;' clip-path='url(#cp1)' />
<circle cx='526.16' cy='62.24' r='1.95pt' style='stroke-width: 0.71; fill: #000000;' clip-path='url(#cp1)' />
<circle cx='526.16' cy='15.66' r='1.95pt' style='stroke-width: 0.71; fill: #000000;' clip-path='url(#cp1)' />
<circle cx='548.89' cy='76.05' r='1.95pt' style='stroke-width: 0.71; fill: #000000;' clip-path='url(#cp1)' />
<defs>
  <clipPath id='cp2'>
    <rect x='0.00' y='0.00' width='578.25' height='265.50' />
  </clipPath>
</defs>
<g clip-path='url(#cp2)'><text x='35.90' y='226.99' style='font-size: 8.80pt; fill: #4D4D4D; font-family: Arial;'>0</text></g>
<g clip-path='url(#cp2)'><text x='29.23' y='183.86' style='font-size: 8.80pt; fill: #4D4D4D; font-family: Arial;'>25</text></g>
<g clip-path='url(#cp2)'><text x='29.23' y='140.73' style='font-size: 8.80pt; fill: #4D4D4D; font-family: Arial;'>50</text></g>
<g clip-path='url(#cp2)'><text x='29.23' y='97.59' style='font-size: 8.80pt; fill: #4D4D4D; font-family: Arial;'>75</text></g>
<g clip-path='url(#cp2)'><text x='22.55' y='54.46' style='font-size: 8.80pt; fill: #4D4D4D; font-family: Arial;'>100</text></g>
<g clip-path='url(#cp2)'><text x='22.55' y='11.32' style='font-size: 8.80pt; fill: #4D4D4D; font-family: Arial;'>125</text></g>
<polyline points='44.77,222.70 47.51,222.70 ' style='stroke-width: 1.07; stroke: #333333; stroke-linecap: butt;' clip-path='url(#cp2)' />
<polyline points='44.77,179.57 47.51,179.57 ' style='stroke-width: 1.07; stroke: #333333; stroke-linecap: butt;' clip-path='url(#cp2)' />
<polyline points='44.77,136.43 47.51,136.43 ' style='stroke-width: 1.07; stroke: #333333; stroke-linecap: butt;' clip-path='url(#cp2)' />
<polyline points='44.77,93.30 47.51,93.30 ' style='stroke-width: 1.07; stroke: #333333; stroke-linecap: butt;' clip-path='url(#cp2)' />
<polyline points='44.77,50.17 47.51,50.17 ' style='stroke-width: 1.07; stroke: #333333; stroke-linecap: butt;' clip-path='url(#cp2)' />
<polyline points='44.77,7.03 47.51,7.03 ' style='stroke-width: 1.07; stroke: #333333; stroke-linecap: butt;' clip-path='url(#cp2)' />
<polyline points='94.12,232.17 94.12,229.43 ' style='stroke-width: 1.07; stroke: #333333; stroke-linecap: butt;' clip-path='url(#cp2)' />
<polyline points='207.82,232.17 207.82,229.43 ' style='stroke-width: 1.07; stroke: #333333; stroke-linecap: butt;' clip-path='url(#cp2)' />
<polyline points='321.51,232.17 321.51,229.43 ' style='stroke-width: 1.07; stroke: #333333; stroke-linecap: butt;' clip-path='url(#cp2)' />
<polyline points='435.20,232.17 435.20,229.43 ' style='stroke-width: 1.07; stroke: #333333; stroke-linecap: butt;' clip-path='url(#cp2)' />
<polyline points='548.89,232.17 548.89,229.43 ' style='stroke-width: 1.07; stroke: #333333; stroke-linecap: butt;' clip-path='url(#cp2)' />
<g clip-path='url(#cp2)'><text x='90.79' y='242.95' style='font-size: 8.80pt; fill: #4D4D4D; font-family: Arial;'>5</text></g>
<g clip-path='url(#cp2)'><text x='201.14' y='242.95' style='font-size: 8.80pt; fill: #4D4D4D; font-family: Arial;'>10</text></g>
<g clip-path='url(#cp2)'><text x='314.83' y='242.95' style='font-size: 8.80pt; fill: #4D4D4D; font-family: Arial;'>15</text></g>
<g clip-path='url(#cp2)'><text x='428.53' y='242.95' style='font-size: 8.80pt; fill: #4D4D4D; font-family: Arial;'>20</text></g>
<g clip-path='url(#cp2)'><text x='542.22' y='242.95' style='font-size: 8.80pt; fill: #4D4D4D; font-family: Arial;'>25</text></g>
<g clip-path='url(#cp2)'><text x='290.16' y='257.83' style='font-size: 11.00pt; font-family: Arial;'>speed</text></g>
<g clip-path='url(#cp2)'><text transform='translate(18.17,128.87) rotate(-90)' style='font-size: 11.00pt; font-family: Arial;'>dist</text></g>
</svg>
